{
  "breadcrumbs": [
    { "label": "# Employees", "signal_field_name": "organization_num_employees_ranges", "value": "51,200", "display_name": "51-200" },
    { "label": "# Employees", "signal_field_name": "organization_num_employees_ranges", "value": "201,500", "display_name": "201-500" },
    { "label": "Company Locations", "signal_field_name": "organization_locations", "value": "germany", "display_name": "germany" },
    { "label": "Company Keywords Contain ANY Of", "signal_field_name": "q_organization_keyword_tags", "value": "conversational ai", "display_name": "conversational ai" },
    { "label": "Company Keywords Contain ANY Of", "signal_field_name": "q_organization_keyword_tags", "value": "contact center ai", "display_name": "contact center ai" }
  ],
  "partial_results_only": false,
  "has_join": false,
  "disable_eu_prospecting": false,
  "partial_results_limit": 10000,
  "pagination": {
    "page": 1,
    "per_page": 10,
    "total_entries": 29,
    "total_pages": 3
  },
  "accounts": [],
  "organizations": [
    {
      "id": "5e574a7ae7950300017e55f4",
      "name": "Parloa",
      "website_url": "http://www.parloa.com",
      "blog_url": null,
      "angellist_url": null,
      "linkedin_url": "http://www.linkedin.com/company/parloa",
      "twitter_url": "https://twitter.com/parloa_ai",
      "facebook_url": null,
      "primary_phone": { "number": "+49 30 520015606", "source": "Owler", "sanitized_number": "+4930520015606" },
      "languages": [],
      "alexa_ranking": null,
      "phone": "+49 30 520015606",
      "linkedin_uid": "26188804",
      "founded_year": 2018,
      "publicly_traded_symbol": null,
      "publicly_traded_exchange": null,
      "logo_url": "https://zenprospect-production.s3.amazonaws.com/uploads/pictures/698371a966100a0001457196/picture",
      "crunchbase_url": null,
      "primary_domain": "parloa.com",
      "sanitized_phone": "+4930520015606",
      "owned_by_organization_id": null,
      "organization_revenue_printed": "50M",
      "organization_revenue": 50000000,
      "intent_strength": null,
      "show_intent": true,
      "has_intent_signal_account": false,
      "intent_signal_account": null,
      "organization_headcount_six_month_growth": 0.3,
      "organization_headcount_twelve_month_growth": 1.241379310344828,
      "organization_headcount_twenty_four_month_growth": 8.285714285714286
    },
    {
      "id": "5a9cdaf1a6da98d96d7f1e61",
      "name": "NiCE Cognigy",
      "website_url": "http://www.cognigy.com",
      "linkedin_url": "http://www.linkedin.com/company/nicecognigy",
      "twitter_url": "https://twitter.com/cognigy",
      "facebook_url": "https://www.facebook.com/cognigy/",
      "primary_phone": { "number": "+49 211 54591991", "source": "Owler", "sanitized_number": "+4921154591991" },
      "languages": [],
      "alexa_ranking": 741328,
      "phone": "+49 211 54591991",
      "linkedin_uid": "10949547",
      "founded_year": 2016,
      "logo_url": "https://zenprospect-production.s3.amazonaws.com/uploads/pictures/69860df1e44e1a000182f165/picture",
      "primary_domain": "cognigy.com",
      "sic_codes": ["7375"],
      "naics_codes": ["54151"],
      "sanitized_phone": "+4921154591991",
      "owned_by_organization_id": "54a11ee569702d97c111c301",
      "owned_by_organization": { "id": "54a11ee569702d97c111c301", "name": "NiCE", "website_url": "http://www.nice.com" },
      "organization_revenue_printed": "37M",
      "organization_revenue": 37000000,
      "organization_headcount_six_month_growth": 0.09090909090909091,
      "organization_headcount_twelve_month_growth": 0.6216216216216216,
      "organization_headcount_twenty_four_month_growth": 0.875
    },
    {
      "id": "5e453c2dde3f3d008d3f5d15",
      "name": "deepset, makers of Haystack",
      "website_url": "http://www.deepset.ai",
      "linkedin_url": "http://www.linkedin.com/company/deepset-ai",
      "twitter_url": "https://twitter.com/deepset_ai",
      "primary_phone": { "number": "+49 30 62206851", "source": "Account", "sanitized_number": "+493062206851" },
      "languages": [],
      "phone": "+49 30 62206851",
      "linkedin_uid": "18582479",
      "founded_year": 2018,
      "logo_url": "https://zenprospect-production.s3.amazonaws.com/uploads/pictures/6985b949a00de20001fd670b/picture",
      "primary_domain": "deepset.ai",
      "sic_codes": ["7375"],
      "naics_codes": ["54151"],
      "sanitized_phone": "+493062206851",
      "owned_by_organization_id": null,
      "organization_revenue_printed": "2M",
      "organization_revenue": 2000000,
      "organization_headcount_six_month_growth": -0.2380952380952381,
      "organization_headcount_twelve_month_growth": 0,
      "organization_headcount_twenty_four_month_growth": 7
    },
    {
      "id": "60f28456c3a2f600019baf97",
      "name": "VIER",
      "website_url": "http://www.vier.ai",
      "linkedin_url": "http://www.linkedin.com/company/vier-ai",
      "primary_phone": {},
      "languages": [],
      "phone": null,
      "linkedin_uid": "70005598",
      "founded_year": 2021,
      "logo_url": "https://zenprospect-production.s3.amazonaws.com/uploads/pictures/6983238adf37a50001212728/picture",
      "primary_domain": "vier.ai",
      "sic_codes": ["7375"],
      "naics_codes": ["54151"],
      "owned_by_organization_id": null,
      "organization_revenue_printed": null,
      "organization_revenue": 0,
      "organization_headcount_six_month_growth": 0,
      "organization_headcount_twelve_month_growth": 0,
      "organization_headcount_twenty_four_month_growth": 0
    },
    {
      "id": "5ccaaf8f0ce6a20b56576c59",
      "name": "Zendesk AI agents (Ultimate)",
      "website_url": "http://www.ultimate.ai",
      "linkedin_url": "http://www.linkedin.com/company/ultimate.ai",
      "twitter_url": "https://twitter.com/ultiai",
      "facebook_url": "https://facebook.com/ultiai/",
      "primary_phone": { "number": "+49 8000 008105", "source": "Owler", "sanitized_number": "+498000008105" },
      "languages": [],
      "alexa_ranking": 676197,
      "phone": "+49 8000 008105",
      "linkedin_uid": "10943000",
      "founded_year": 2017,
      "logo_url": "https://zenprospect-production.s3.amazonaws.com/uploads/pictures/69824bb5aedd5e00010c613f/picture",
      "primary_domain": "ultimate.ai",
      "sic_codes": ["7375"],
      "naics_codes": ["54151"],
      "sanitized_phone": "+498000008105",
      "owned_by_organization_id": "54a11e3a69702d94a4753c01",
      "owned_by_organization": { "id": "54a11e3a69702d94a4753c01", "name": "Zendesk", "website_url": "http://www.zendesk.com" },
      "organization_revenue_printed": "6.3M",
      "organization_revenue": 6300000,
      "organization_headcount_six_month_growth": 0.04761904761904762,
      "organization_headcount_twelve_month_growth": 0.1,
      "organization_headcount_twenty_four_month_growth": 0.2222222222222222
    }
  ],
  "model_ids": ["5e574a7ae7950300017e55f4", "5a9cdaf1a6da98d96d7f1e61", "5e453c2dde3f3d008d3f5d15", "60f28456c3a2f600019baf97", "5ccaaf8f0ce6a20b56576c59"],
  "num_fetch_result": null,
  "derived_params": null
}
